<?xml version="1.0" encoding="utf-8"?>
<!-- Generator: Adobe Illustrator 16.0.0, SVG Export Plug-In . SVG Version: 6.00 Build 0)  -->
<!DOCTYPE svg PUBLIC "-//W3C//DTD SVG 1.1//EN" "http://www.w3.org/Graphics/SVG/1.1/DTD/svg11.dtd">
<svg version="1.1" id="Layer_1" xmlns="http://www.w3.org/2000/svg" xmlns:xlink="http://www.w3.org/1999/xlink" x="0px" y="0px"
	 width="256px" height="256px" viewBox="0 0 256 256" enable-background="new 0 0 256 256" xml:space="preserve">
<path fill="none" stroke="#231F20" stroke-miterlimit="10" d="M-51.145-86.285c19.364-14.162,90.75-5.781,114.451,36.127
	c10.693,18.786,7.225,34.682,6.069,54.914c-0.289,8.38,0.867,17.341,3.468,25.433c2.313,7.803,6.647,16.186,6.358,24.855
	c-0.289,7.803-7.515,14.451-12.428,19.941c-8.96,9.25-17.63,11.852-30.636,13.873c-32.37,4.625-74.855,9.828-100-16.184
	c-2.89-3.18-4.335-6.359-6.358-10.404c-2.312-4.914-6.647-9.539-8.381-15.029c-3.468-11.85,8.67-22.543,13.873-32.082
	c7.226-13.005,19.075-34.393,11.561-48.843C-58.371-43.8-67.619-65.765-51.145-86.285z"/>
<path fill="none" stroke="#231F20" stroke-miterlimit="10" d="M13.326-28.483c4.653,2.51,7.585,6.957,9.947,11.456
	c4.413,8.739,7.456,25.188-2.838,31.466c-6.438,3.801-13.589,4.163-20.731,5.902C-6.868,22.029-13.805,32.37-20.81,26.74
	c-4.902-3.981-7.666-14.824-8.254-20.689c-0.507-4.322-0.121-13.381,2.274-17.391c1.783-3.15,7.64-5.118,10.646-6.827
	c3.597-2.166,7.086-7.96,11.839-9.522C0.449-29.252,8.196-31.179,13.326-28.483z"/>
</svg>
